{
	"name" : "Careerfy Framework",
	"slug" : "careerfy-framework",
	"download_url" : "https://careerfy.net/demo/wp-content/themes/careerfy/inc/activation-plugins/careerfy-framework.zip",
	"version" : "1.0.6",
	"requires" : "4.0",
	"tested" : "4.9.4",
	"last_updated" : "2018-03-22 02:10:00",
	"upgrade_notice" : "Plugin update is available.",
	"author" : "Eyecix",
	"author_homepage" : "https://themeforest.net/user/eyecix/portfolio",
	"sections" : {
		"description" : "This is a supporting plugin for Careerfy Theme.",
		"installation" : "Upload the plugin to your site, Activate it, that's it!",
		"changelog" : "<h4>1.0.6 –  March 22, 2018</h4><ul><li>Some bugs are fixed.</li></ul>"
	}
}